…
I am running into a slight issue in that the data for 2022-2023 is in a
very different format, with each observation being an individual
salamander after PIT-tagging was implemented. I’m going to merge the
datasets I just cleaned (op15-op21) which could be used to look at
return rates. I could select out only the same data/variables as the
past years in order to do this kind of analysis but more tidying will
have to be done. For now I will merge the tidied datasets op15-op21 and
do a similar tidying/merge of datasets op22, sals 22 and op23.

``` r
rbind(op15, op16, op17, op18, op19, op20, op21)
```

    ## # A tibble: 355 × 12
    ##    date       pool  salinity salinity2 pool_temp total unmarked   red orange
    ##    <date>     <chr>    <dbl>     <dbl>     <dbl> <dbl>    <dbl> <dbl>  <dbl>
    ##  1 2015-04-14 <NA>      NA        NA        NA      43       NA    NA     NA
    ##  2 2015-04-16 <NA>       0.1      NA        10.4    NA       NA    NA     NA
    ##  3 2015-04-16 <NA>       0.2      NA         8.8    NA       NA    NA     NA
    ##  4 2015-04-18 <NA>      NA        NA        NA      63       NA    NA     NA
    ##  5 2015-04-19 <NA>       0.1      NA        NA     129       NA    NA     NA
    ##  6 2015-04-20 <NA>      NA        NA        NA      87       NA    NA     NA
    ##  7 2015-04-21 <NA>      NA        NA        NA      69       NA    NA     NA
    ##  8 2015-04-21 <NA>      10        NA        NA      NA       NA    NA     NA
    ##  9 2015-04-21 <NA>      24         0.1      NA      NA        1    NA     NA
    ## 10 2015-04-21 <NA>       8        NA        NA      NA        3    NA     NA
    ## # ℹ 345 more rows
    ## # ℹ 3 more variables: pink <dbl>, yellow <dbl>, dead <dbl>
