…
## Data Processing

``` r
(`2023pits` <- sals %>% 
  filter(year == 2023))
```

    ## # A tibble: 58 × 11
    ##    date     pool   pit color sex   year  salinity pool_temp notes recap pit_year
    ##    <chr>   <dbl> <dbl> <chr> <chr> <chr>    <dbl>     <dbl> <chr> <chr>    <dbl>
    ##  1 23-04-…     0  4745 green <NA>  2023     NA         NA   no c… no        2023
    ##  2 23-04-…     0  4854 green <NA>  2023     NA         NA   abov… no        2023
    ##  3 23-04-…     1  4764 green <NA>  2023      0.14      10.4 <NA>  no        2023
    ##  4 23-04-…     2  3284 green <NA>  2023      0.17      10.7 2 un… no        2023
    ##  5 23-04-…     7  4800 green <NA>  2023      0.23      10.4 <NA>  no        2023
    ##  6 23-04-…     7  4883 green <NA>  2023      0.23      10.4 <NA>  no        2023
    ##  7 23-04-…     7  3358 green <NA>  2023      0.23      10.4 <NA>  no        2023
    ##  8 23-04-…     7  4863 green <NA>  2023      0.23      10.4 <NA>  no        2023
    ##  9 23-04-…     7  3218 green <NA>  2023      0.23      10.4 <NA>  no        2023
    ## 10 23-04-…     7  4714 green <NA>  2023      0.23      10.4 <NA>  no        2023
    ## # ℹ 48 more rows

``` r
sals <- sals %>% 
  mutate(year = case_when(
    pit %in% `2023pits` ~ "2023",
    .default = year
  ))

(`2022pits` <- sals %>% 
    filter(color == "blue"))
```

    ## # A tibble: 249 × 11
    ##    date     pool   pit color sex   year  salinity pool_temp notes recap pit_year
    ##    <chr>   <dbl> <dbl> <chr> <chr> <chr>    <dbl>     <dbl> <chr> <chr>    <dbl>
    ##  1 2022-0…     7  3293 blue  m     2022      0          5   <NA>  no        2022
    ##  2 2022-0…     0  3247 blue  m     2022      0          5.5 <NA>  no        2022
    ##  3 2022-0…     7  3305 blue  m     2022      0.29       5.5 <NA>  no        2022
    ##  4 2022-0…     0  3337 blue  m     2022      0          5.5 <NA>  no        2022
    ##  5 2022-0…     5  3358 blue  m     2022      0.32       5.5 <NA>  no        2022
    ##  6 2022-0…     5  3382 blue  m     2022      0.32       5.5 <NA>  no        2022
    ##  7 2022-0…     5  3383 blue  m     2022      0.32       5.5 <NA>  no        2022
    ##  8 2022-0…     6  3337 blue  m     2022      0.19       4.3 <NA>  no        2022
    ##  9 2022-0…    13  3305 blue  m     2022      0.3        5.9 <NA>  no        2022
    ## 10 2022-0…     0  3325 blue  m     2022      0.19       5.2 <NA>  no        2022
    ## # ℹ 239 more rows
…
``` r
sals %>% 
  group_by(pit) %>% 
  count(year)
```

    ## # A tibble: 309 × 3
    ## # Groups:   pit [250]
    ##      pit year          n
    ##    <dbl> <chr>     <int>
    ##  1  1299 2020_2021     1
    ##  2  3205 2019          1
    ##  3  3206 2019          3
    ##  4  3207 2019          3
    ##  5  3208 2019          2
    ##  6  3209 2022          1
    ##  7  3210 2022          1
    ##  8  3211 2019          3
    ##  9  3212 2022          2
    ## 10  3214 2022          2
    ## # ℹ 299 more rows

``` r
#This code revealed that there is an erroneous pit tag 1299 (I think this is actually the IMG file number). Keep this in mind as I'll have to omit the observation? from my visualizations/analysis.

sals %>% 
  count(pit)
```

    ## # A tibble: 250 × 2
    ##      pit     n
    ##    <dbl> <int>
    ##  1  1299     1
    ##  2  3205     1
    ##  3  3206     3
    ##  4  3207     3
    ##  5  3208     2
    ##  6  3209     1
    ##  7  3210     1
    ##  8  3211     3
    ##  9  3212     2
    ## 10  3214     2
    ## # ℹ 240 more rows
…
``` r
sals %>% 
  group_by(pit) %>% 
  count(year)
```

    ## # A tibble: 254 × 3
    ## # Groups:   pit [250]
    ##      pit year          n
    ##    <dbl> <chr>     <int>
    ##  1  1299 2020_2021     1
    ##  2  3205 2019          1
    ##  3  3206 2019          3
    ##  4  3207 2019          3
    ##  5  3208 2019          2
    ##  6  3209 2022          1
    ##  7  3210 2022          1
    ##  8  3211 2019          3
    ##  9  3212 2022          2
    ## 10  3214 2022          2
    ## # ℹ 244 more rows
…
``` r
sals %>% 
  group_by(pit) %>% 
  count()
```

    ## # A tibble: 249 × 2
    ## # Groups:   pit [249]
    ##    pit       n
    ##    <chr> <int>
    ##  1 3205      1
    ##  2 3206      3
    ##  3 3207      3
    ##  4 3208      2
    ##  5 3209      1
    ##  6 3210      1
    ##  7 3211      3
    ##  8 3212      2
    ##  9 3214      2
    ## 10 3215      1
    ## # ℹ 239 more rows
…
